Added Component: Designator=X(X3_1.27)
Added Pin To Net: NetName=GND Pin=X-1
Added Pin To Net: NetName=+12V Pin=X-2
Added Pin To Net: NetName=GND Pin=X-3
Added Member To Class: ClassName=LTC5584_test_board Member=Component X x3_2.54
