Change Component Footprint: Designator=X2 Old Footprint=SMA_side New Footprint=SMA
Change Component Footprint: Designator=X3 Old Footprint=SMA_side New Footprint=SMA
Change Component Footprint: Designator=X Old Footprint=SMA_side New Footprint=SMA
