Added Component: Designator=R13(0603)
Add component (AddParameter): Name = "resistance"; Value = "1K"; VariantName = "[No Variations]"
Add component (AddParameter): Name = "tolerance"; Value = "5 %"; VariantName = "[No Variations]"
Added Component: Designator=R14(0603)
Add component (AddParameter): Name = "resistance"; Value = "1K"; VariantName = "[No Variations]"
Add component (AddParameter): Name = "tolerance"; Value = "5 %"; VariantName = "[No Variations]"
Added Component: Designator=R15(0603)
Add component (AddParameter): Name = "resistance"; Value = "1K"; VariantName = "[No Variations]"
Add component (AddParameter): Name = "tolerance"; Value = "5 %"; VariantName = "[No Variations]"
Added Component: Designator=R16(0603)
Add component (AddParameter): Name = "resistance"; Value = "1K"; VariantName = "[No Variations]"
Add component (AddParameter): Name = "tolerance"; Value = "5 %"; VariantName = "[No Variations]"
Added Pin To Net: NetName=+5V Pin=R13-1
Added Pin To Net: NetName=+5V Pin=R14-2
Added Pin To Net: NetName=+5V Pin=R15-1
Added Pin To Net: NetName=NetR3_2 Pin=R15-2
Added Pin To Net: NetName=NetR4_2 Pin=R16-1
Added Pin To Net: NetName=+5V Pin=R16-2
Change Net Name : Old Net Name=AIN8 New Net Name=AIN8 
Change Net Name : Old Net Name=AIN9 New Net Name=AIN9 
Change Net Name : Old Net Name=CS New Net Name=CS 
Change Net Name : Old Net Name=DIN New Net Name=DIN 
Change Net Name : Old Net Name=DOUT/DRDY New Net Name=DOUT/DRDY 
Change Net Name : Old Net Name=RESET/PWDN New Net Name=RESET/PWDN 
Change Net Name : Old Net Name=SCLK New Net Name=SCLK 
Change Net Name : Old Net Name=START New Net Name=START 
Added Pin To Net: NetName=Q+ Pin=R2-2
Added Pin To Net: NetName=Q+ Pin=R14-1
Added Pin To Net: NetName=Q+ Pin=U1-22
Added Net: Name=Q+
Added Pin To Net: NetName=Q- Pin=R1-2
Added Pin To Net: NetName=Q- Pin=R13-2
Added Pin To Net: NetName=Q- Pin=U1-23
Added Net: Name=Q-
Added Member To Class: ClassName=LTC5584_test_board Member=Component R13 R
Added Member To Class: ClassName=LTC5584_test_board Member=Component R14 R
Added Member To Class: ClassName=LTC5584_test_board Member=Component R15 R
Added Member To Class: ClassName=LTC5584_test_board Member=Component R16 R
